dmcv1.5,Cap Cadivi CV 1.5,met,4136,15,3515.6,,,Ck,15
dmcv2.5,Cap Cadivi CV 2.5,met,6732,15,5722.2,,,,
dmcv3.5,Cap Cadivi CV 3.5,met,8921,15,7582.85,,,,
dmcv4.0,Cap Cadivi CV 4.0,met,10197,15,8667.45,,,,
dmcv6.0,Cap Cadivi CV 6.0,met,14982,15,12734.7,,,,
dmcv8.0,Cap Cadivi CV 8.0,met,19789,15,16820.65,,,,
dmcv10.0,Cap Cadivi CV 10.0,met,24530,15,20850.5,,,,
dmcv11.0,Cap Cadivi CV 11.0,met,26180,15,22253,,,,
dm2.16,Cap Cadivi doi 2 x 16 (2 x 0.5),met,3036,15,2580.6,,,,
dm2.24,Cap Cadivi doi 2 x 24 (2 x 0.75),met,4279,15,3637.15,,,,
dm2.32,Cap Cadivi doi 2 x 32 (2 x 1.0),met,5489,15,4665.65,,,,
dm2.50,Cap Cadivi doi 2 x 50 (2 x 2.5),met,12683,15,10780.55,,,,
dm2.30,Cap Cadivi doi 2 x 30 (2 x 1.5),met,7821,15,6647.85,,,,
dm2.0.75,OVAL Cadivi tron 2 x 0.75 (2 x 24),met,5038,15,4282.3,,,,
dm2.1.0,OVAL Cadivi tron 2 x 1.0 (2 x 32),met,6303,15,5357.55,,,,
dm2.1.5,OVAL Cadivi tron 2 x 1.5 (2 x 30),met,8888,15,7554.8,,,,
dm2.2.5,OVAL Cadivi tron 2 x 2.5 (2 x 50),met,14311,15,12164.35,,,,
dm2.4,OVAL Cadivi tron 2 x 4.0,met,21637,15,18391.45,,,,
dm2.6,OVAL Cadivi tron 2 x 6.0,met,32340,15,27489,,,,
